<?xml version="1.0" encoding="iso-8859-1"?>
<!-- Generator: Adobe Illustrator 18.1.1, SVG Export Plug-In . SVG Version: 6.00 Build 0)  -->
<svg version="1.1" id="Capa_1" xmlns="http://www.w3.org/2000/svg" xmlns:xlink="http://www.w3.org/1999/xlink" x="0px" y="0px" width="90px" height="90px"
	 viewBox="0 0 179.006 179.006" style="enable-background:new 0 0 179.006 179.006;" xml:space="preserve">
<g>
	<g>
		<path style="fill:#010002;" d="M159.823,12.232v81.472h-15.908V80.242c2.858-4.129,4.392-9.302,4.392-15.007
			c0-9.094-3.789-16.916-10.967-21.027c-2.047-16.654-11.236-28.868-22.597-28.868h-50.48c-11.367,0-20.556,12.214-22.608,28.868
			c-7.178,4.105-10.967,11.934-10.967,21.027c0,5.704,1.551,10.878,4.398,15.007v13.461H19.178V12.232H0v154.542h19.183v-63.487
			h54.483v-9.583H59.072v-4.35h60.868v4.35h-14.601v9.583h54.489v63.487h19.178V12.232
			C179.006,12.232,159.823,12.232,159.823,12.232z M51.011,73.07c-4.326,0-7.829-3.503-7.829-7.834s3.509-7.84,7.829-7.84
			c4.35,0,7.84,3.509,7.84,7.84S55.343,73.07,51.011,73.07z M53.821,41.112c-1.569,0-2.995,0.185-4.398,0.4
			c2.255-10.937,8.139-18.987,14.852-18.987h50.486c6.713,0,12.578,8.049,14.834,18.987c-0.734-0.119-1.545-0.155-2.333-0.215
			c0-0.066,0.018-0.125,0.018-0.191c0-6.91-5.609-12.536-12.536-12.536c-6.91,0-12.53,5.621-12.53,12.536L53.821,41.112
			L53.821,41.112z M112.261,72.205H66.727c-1.331,0-2.393-1.074-2.393-2.399s1.074-2.399,2.393-2.399h45.533
			c1.337,0,2.399,1.074,2.399,2.399C114.665,71.131,113.597,72.205,112.261,72.205z M112.261,65.343H66.727
			c-1.331,0-2.393-1.074-2.393-2.399s1.074-2.399,2.393-2.399h45.533c1.337,0,2.399,1.074,2.399,2.399
			C114.665,64.269,113.597,65.343,112.261,65.343z M107.022,41.112c0-4.266,3.473-7.739,7.739-7.739
			c4.266,0,7.739,3.473,7.739,7.739H107.022z M127.995,73.07c-4.338,0-7.84-3.503-7.84-7.834s3.52-7.84,7.84-7.84
			c4.32,0,7.829,3.509,7.829,7.84C135.842,69.568,132.321,73.07,127.995,73.07z"/>
	</g>
</g>
<g>
</g>
<g>
</g>
<g>
</g>
<g>
</g>
<g>
</g>
<g>
</g>
<g>
</g>
<g>
</g>
<g>
</g>
<g>
</g>
<g>
</g>
<g>
</g>
<g>
</g>
<g>
</g>
<g>
</g>
</svg>
